{
  "variables": {
    "name": "spinnaker",
    "platform" : "ubuntu",
    "platform_version": "18.04"
  },
  "builders": [{
    "type": "amazon-ebs",
    "access_key": "{{user `aws_access_key`}}",
    "secret_key": "{{user `aws_secret_key`}}",
    "region": "{{user `aws_region`}}",
    "vpc_id": "{{user `aws_vpc_id`}}",
    "subnet_id": "{{user `aws_subnet_id`}}",
    "source_ami_filter": {
      "filters": {
        "virtualization-type": "hvm",
        "name": "ubuntu/images/*ubuntu-bionic-18.04-amd64-server-*",
        "root-device-type": "ebs"
      },
      "owners": ["099720109477"],
      "most_recent": true
    },
    "instance_type": "t2.micro",
    "ssh_username": "ubuntu",
    "ami_name": "{{user `namespace`}}-{{user `stage`}}-{{user `name`}}-ami ({{ isotime \"2006-01-02 15-04-05\" }})"
  }],
  "provisioners": [
    {
      "type": "shell",
      "script": "{{user `packer_directory_path`}}/scripts/install-ansible.sh"
    },
    {
      "type": "ansible-local",
      "playbook_file": "{{user `ansible_directory_path`}}/playbooks/base.yml",
      "galaxy_file" : "{{user `ansible_directory_path`}}/requirements/base-galaxy.yml"
    },
    {
      "type": "ansible-local",
      "playbook_file": "{{user `ansible_directory_path`}}/playbooks/spinnaker.yml"
    }
  ],
  "post-processors": [
    {
      "type": "manifest",
      "output": "manifest-{{user `name`}}.json",
      "strip_path": true,
      "custom_data": {
        "namespace": "{{user `namespace`}}",
        "platform" : "{{user `platform`}}",
        "platform_version": "{{user `platform_version`}}",
        "build_host": "{{user `build_host`}}",
        "repository": "{{user `repository`}}"
      }
    }
  ]
}